nodes: circles, from: 1, to: 22

game: 20, reveal: 3 7 11 15 20

transport: taxi, users: all
transport: bus, users: all
transport: metro, users: all

phantom: Fantomas, taxi: 3, metro: 2, bus: 2
detective: Sherlock, taxi: 5, metro: 10, bus: 10
detective: Lestrade, taxi: 5, metro: 10, bus: 10
detective: Poirot, taxi: 5, metro: 10, bus: 10

# Outer circle
edge: 1=2@bus
edge: 2=3@bus
edge: 3=4@bus
edge: 4=5@bus
edge: 5=6@bus
edge: 6=7@bus
edge: 7=8@bus
edge: 8=9@bus
edge: 9=10@bus
edge: 10=11@bus
edge: 11=1@bus

# Inner circle
edge: 12=13@metro
edge: 13=14@metro
edge: 14=15@metro
edge: 15=16@metro
edge: 16=17@metro
edge: 17=18@metro
edge: 18=19@metro
edge: 19=20@metro
edge: 20=21@metro
edge: 21=22@metro
edge: 22=12@metro

edge: 1=12@taxi
edge: 2=13@taxi
edge: 3=14@taxi
edge: 4=15@taxi
edge: 5=16@taxi
edge: 6=17@taxi
edge: 7=18@taxi
edge: 8=19@taxi
edge: 9=20@taxi
edge: 10=21@taxi
edge: 11=22@taxi
